# Blender v2.76 (sub 0) OBJ File: ''
# www.blender.org
mtllib purpledonut.mtl
o Torus
v 1.783065 -0.068940 0.038699
v 1.746222 0.068560 0.038699
v 1.645565 0.169217 0.038699
v 1.508065 0.206060 0.038699
v 1.370565 0.169217 0.038699
v 1.269908 0.068560 0.038699
v 1.233065 -0.068940 0.038699
v 1.269908 -0.206440 0.038699
v 1.370565 -0.307097 0.038699
v 1.508065 -0.343940 0.038699
v 1.645565 -0.307097 0.038699
v 1.746222 -0.206440 0.038699
v 1.771302 -0.068940 -0.140774
v 1.734774 0.068560 -0.135965
v 1.634978 0.169217 -0.122827
v 1.498655 0.206060 -0.104880
v 1.362331 0.169217 -0.086932
v 1.262535 0.068560 -0.073794
v 1.226007 -0.068940 -0.068985
v 1.262535 -0.206440 -0.073794
v 1.362331 -0.307097 -0.086932
v 1.498655 -0.343940 -0.104880
v 1.634978 -0.307097 -0.122827
v 1.734774 -0.206440 -0.135965
v 1.736213 -0.068940 -0.317177
v 1.700626 0.068560 -0.307641
v 1.603399 0.169217 -0.281589
v 1.470584 0.206060 -0.246002
v 1.337769 0.169217 -0.210414
v 1.240542 0.068560 -0.184362
v 1.204954 -0.068940 -0.174827
v 1.240542 -0.206440 -0.184362
v 1.337769 -0.307097 -0.210414
v 1.470584 -0.343940 -0.246002
v 1.603399 -0.307097 -0.281589
v 1.700626 -0.206440 -0.307641
v 1.678400 -0.068940 -0.487490
v 1.644361 0.068560 -0.473391
v 1.551366 0.169217 -0.434871
v 1.424333 0.206060 -0.382253
v 1.297299 0.169217 -0.329634
v 1.204304 0.068560 -0.291114
v 1.170266 -0.068940 -0.277015
v 1.204304 -0.206440 -0.291114
v 1.297299 -0.307097 -0.329634
v 1.424333 -0.343940 -0.382253
v 1.551366 -0.307097 -0.434871
v 1.644361 -0.206440 -0.473391
v 1.598850 -0.068940 -0.648801
v 1.566943 0.068560 -0.630380
v 1.479772 0.169217 -0.580051
v 1.360693 0.206060 -0.511301
v 1.241615 0.169217 -0.442551
v 1.154443 0.068560 -0.392222
v 1.122536 -0.068940 -0.373801
v 1.154443 -0.206440 -0.392222
v 1.241615 -0.307097 -0.442551
v 1.360693 -0.343940 -0.511301
v 1.479772 -0.307097 -0.580051
v 1.566943 -0.206440 -0.630380
v 1.498926 -0.068940 -0.798348
v 1.469697 0.068560 -0.775919
v 1.389840 0.169217 -0.714643
v 1.280754 0.206060 -0.630938
v 1.171668 0.169217 -0.547234
v 1.091811 0.068560 -0.485958
v 1.062582 -0.068940 -0.463529
v 1.091811 -0.206440 -0.485958
v 1.171668 -0.307097 -0.547234
v 1.280754 -0.343940 -0.630938
v 1.389840 -0.307097 -0.714643
v 1.469697 -0.206440 -0.775919
v 1.380337 -0.068940 -0.933573
v 1.354285 0.068560 -0.907521
v 1.283110 0.169217 -0.836346
v 1.185883 0.206060 -0.739118
v 1.088655 0.169217 -0.641891
v 1.017480 0.068560 -0.570716
v 0.991428 -0.068940 -0.544664
v 1.017480 -0.206440 -0.570716
v 1.088655 -0.307097 -0.641891
v 1.185883 -0.343940 -0.739118
v 1.283110 -0.307097 -0.836346
v 1.354285 -0.206440 -0.907521
v 1.245112 -0.068940 -1.052161
v 1.222684 0.068560 -1.022932
v 1.161407 0.169217 -0.943075
v 1.077703 0.206060 -0.833989
v 0.993998 0.169217 -0.724903
v 0.932722 0.068560 -0.645047
v 0.910293 -0.068940 -0.615817
v 0.932722 -0.206440 -0.645047
v 0.993998 -0.307097 -0.724903
v 1.077703 -0.343940 -0.833989
v 1.161407 -0.307097 -0.943075
v 1.222684 -0.206440 -1.022932
v 1.095565 -0.068940 -1.152086
v 1.077144 0.068560 -1.120179
v 1.026815 0.169217 -1.033007
v 0.958065 0.206060 -0.913929
v 0.889315 0.169217 -0.794850
v 0.838987 0.068560 -0.707679
v 0.820565 -0.068940 -0.675772
v 0.838987 -0.206440 -0.707679
v 0.889315 -0.307097 -0.794850
v 0.958065 -0.343940 -0.913929
v 1.026815 -0.307097 -1.033007
v 1.077144 -0.206440 -1.120179
v 0.934255 -0.068940 -1.231635
v 0.920156 0.068560 -1.197596
v 0.881636 0.169217 -1.104602
v 0.829017 0.206060 -0.977568
v 0.776398 0.169217 -0.850535
v 0.737878 0.068560 -0.757540
v 0.723779 -0.068940 -0.723501
v 0.737878 -0.206440 -0.757540
v 0.776398 -0.307097 -0.850535
v 0.829017 -0.343940 -0.977568
v 0.881636 -0.307097 -1.104602
v 0.920156 -0.206440 -1.197596
v 0.763941 -0.068940 -1.289449
v 0.754406 0.068560 -1.253861
v 0.728354 0.169217 -1.156634
v 0.692766 0.206060 -1.023819
v 0.657178 0.169217 -0.891005
v 0.631127 0.068560 -0.793777
v 0.621591 -0.068940 -0.758190
v 0.631127 -0.206440 -0.793777
v 0.657178 -0.307097 -0.891005
v 0.692766 -0.343940 -1.023819
v 0.728354 -0.307097 -1.156634
v 0.754406 -0.206440 -1.253861
v 0.587538 -0.068940 -1.324538
v 0.582729 0.068560 -1.288010
v 0.569591 0.169217 -1.188214
v 0.551644 0.206060 -1.051890
v 0.533696 0.169217 -0.915567
v 0.520558 0.068560 -0.815771
v 0.515749 -0.068940 -0.779243
v 0.520558 -0.206440 -0.815771
v 0.533696 -0.307097 -0.915567
v 0.551644 -0.343940 -1.051890
v 0.569591 -0.307097 -1.188214
v 0.582729 -0.206440 -1.288010
v 0.408065 -0.068940 -1.336301
v 0.408065 0.068560 -1.299458
v 0.408065 0.169217 -1.198801
v 0.408065 0.206060 -1.061301
v 0.408065 0.169217 -0.923801
v 0.408065 0.068560 -0.823144
v 0.408065 -0.068940 -0.786301
v 0.408065 -0.206440 -0.823144
v 0.408065 -0.307097 -0.923801
v 0.408065 -0.343940 -1.061301
v 0.408065 -0.307097 -1.198801
v 0.408065 -0.206440 -1.299458
v 0.228591 -0.068940 -1.324537
v 0.233400 0.068560 -1.288010
v 0.246539 0.169217 -1.188214
v 0.264486 0.206060 -1.051890
v 0.282433 0.169217 -0.915567
v 0.295572 0.068560 -0.815771
v 0.300381 -0.068940 -0.779243
v 0.295572 -0.206440 -0.815771
v 0.282433 -0.307097 -0.915567
v 0.264486 -0.343940 -1.051890
v 0.246539 -0.307097 -1.188214
v 0.233400 -0.206440 -1.288010
v 0.052189 -0.068940 -1.289449
v 0.061725 0.068560 -1.253861
v 0.087777 0.169217 -1.156634
v 0.123364 0.206060 -1.023819
v 0.158952 0.169217 -0.891005
v 0.185004 0.068560 -0.793777
v 0.194540 -0.068940 -0.758190
v 0.185004 -0.206440 -0.793777
v 0.158952 -0.307097 -0.891005
v 0.123364 -0.343940 -1.023819
v 0.087777 -0.307097 -1.156634
v 0.061725 -0.206440 -1.253861
v -0.118125 -0.068940 -1.231635
v -0.104026 0.068560 -1.197597
v -0.065506 0.169217 -1.104602
v -0.012887 0.206060 -0.977568
v 0.039732 0.169217 -0.850535
v 0.078252 0.068560 -0.757540
v 0.092351 -0.068940 -0.723502
v 0.078252 -0.206440 -0.757540
v 0.039732 -0.307097 -0.850535
v -0.012887 -0.343940 -0.977568
v -0.065506 -0.307097 -1.104602
v -0.104026 -0.206440 -1.197597
v -0.279435 -0.068940 -1.152086
v -0.261013 0.068560 -1.120179
v -0.210685 0.169217 -1.033007
v -0.141935 0.206060 -0.913929
v -0.073185 0.169217 -0.794850
v -0.022856 0.068560 -0.707679
v -0.004435 -0.068940 -0.675772
v -0.022856 -0.206440 -0.707679
v -0.073185 -0.307097 -0.794850
v -0.141935 -0.343940 -0.913929
v -0.210685 -0.307097 -1.033007
v -0.261013 -0.206440 -1.120179
v -0.428982 -0.068940 -1.052162
v -0.406553 0.068560 -1.022932
v -0.345277 0.169217 -0.943076
v -0.261573 0.206060 -0.833990
v -0.177868 0.169217 -0.724903
v -0.116592 0.068560 -0.645047
v -0.094163 -0.068940 -0.615817
v -0.116592 -0.206440 -0.645047
v -0.177868 -0.307097 -0.724903
v -0.261573 -0.343940 -0.833990
v -0.345277 -0.307097 -0.943076
v -0.406553 -0.206440 -1.022932
v -0.564207 -0.068940 -0.933572
v -0.538155 0.068560 -0.907521
v -0.466980 0.169217 -0.836345
v -0.369753 0.206060 -0.739118
v -0.272525 0.169217 -0.641891
v -0.201350 0.068560 -0.570716
v -0.175298 -0.068940 -0.544664
v -0.201350 -0.206440 -0.570716
v -0.272525 -0.307097 -0.641891
v -0.369753 -0.343940 -0.739118
v -0.466980 -0.307097 -0.836345
v -0.538155 -0.206440 -0.907521
v -0.682796 -0.068940 -0.798348
v -0.653566 0.068560 -0.775919
v -0.573710 0.169217 -0.714643
v -0.464624 0.206060 -0.630938
v -0.355537 0.169217 -0.547234
v -0.275681 0.068560 -0.485958
v -0.246451 -0.068940 -0.463529
v -0.275681 -0.206440 -0.485958
v -0.355537 -0.307097 -0.547234
v -0.464624 -0.343940 -0.630938
v -0.573710 -0.307097 -0.714643
v -0.653566 -0.206440 -0.775919
v -0.782720 -0.068940 -0.648801
v -0.750813 0.068560 -0.630380
v -0.663641 0.169217 -0.580051
v -0.544563 0.206060 -0.511301
v -0.425484 0.169217 -0.442551
v -0.338313 0.068560 -0.392223
v -0.306406 -0.068940 -0.373801
v -0.338313 -0.206440 -0.392223
v -0.425484 -0.307097 -0.442551
v -0.544563 -0.343940 -0.511301
v -0.663641 -0.307097 -0.580051
v -0.750813 -0.206440 -0.630380
v -0.862269 -0.068940 -0.487491
v -0.828231 0.068560 -0.473391
v -0.735236 0.169217 -0.434872
v -0.608202 0.206060 -0.382253
v -0.481169 0.169217 -0.329634
v -0.388174 0.068560 -0.291114
v -0.354135 -0.068940 -0.277015
v -0.388174 -0.206440 -0.291114
v -0.481169 -0.307097 -0.329634
v -0.608202 -0.343940 -0.382253
v -0.735236 -0.307097 -0.434872
v -0.828231 -0.206440 -0.473391
v -0.920083 -0.068940 -0.317177
v -0.884495 0.068560 -0.307641
v -0.787268 0.169217 -0.281589
v -0.654453 0.206060 -0.246002
v -0.521639 0.169217 -0.210414
v -0.424411 0.068560 -0.184362
v -0.388824 -0.068940 -0.174826
v -0.424411 -0.206440 -0.184362
v -0.521639 -0.307097 -0.210414
v -0.654453 -0.343940 -0.246002
v -0.787268 -0.307097 -0.281589
v -0.884495 -0.206440 -0.307641
v -0.955171 -0.068940 -0.140775
v -0.918644 0.068560 -0.135966
v -0.818848 0.169217 -0.122827
v -0.682524 0.206060 -0.104880
v -0.546201 0.169217 -0.086932
v -0.446405 0.068560 -0.073794
v -0.409877 -0.068940 -0.068985
v -0.446405 -0.206440 -0.073794
v -0.546201 -0.307097 -0.086932
v -0.682524 -0.343940 -0.104880
v -0.818848 -0.307097 -0.122827
v -0.918644 -0.206440 -0.135966
v -0.966935 -0.068940 0.038699
v -0.930092 0.068560 0.038699
v -0.829435 0.169217 0.038699
v -0.691935 0.206060 0.038699
v -0.554435 0.169217 0.038699
v -0.453778 0.068560 0.038699
v -0.416935 -0.068940 0.038699
v -0.453778 -0.206440 0.038699
v -0.554435 -0.307097 0.038699
v -0.691935 -0.343940 0.038699
v -0.829435 -0.307097 0.038699
v -0.930092 -0.206440 0.038699
v -0.955171 -0.068940 0.218173
v -0.918644 0.068560 0.213364
v -0.818848 0.169217 0.200225
v -0.682524 0.206060 0.182278
v -0.546201 0.169217 0.164331
v -0.446405 0.068560 0.151192
v -0.409877 -0.068940 0.146383
v -0.446405 -0.206440 0.151192
v -0.546201 -0.307097 0.164331
v -0.682524 -0.343940 0.182278
v -0.818848 -0.307097 0.200225
v -0.918644 -0.206440 0.213364
v -0.920083 -0.068940 0.394575
v -0.884495 0.068560 0.385040
v -0.787268 0.169217 0.358988
v -0.654453 0.206060 0.323400
v -0.521639 0.169217 0.287812
v -0.424411 0.068560 0.261760
v -0.388824 -0.068940 0.252225
v -0.424411 -0.206440 0.261760
v -0.521639 -0.307097 0.287812
v -0.654453 -0.343940 0.323400
v -0.787268 -0.307097 0.358988
v -0.884495 -0.206440 0.385040
v -0.862269 -0.068940 0.564888
v -0.828231 0.068560 0.550789
v -0.735236 0.169217 0.512269
v -0.608203 0.206060 0.459651
v -0.481169 0.169217 0.407032
v -0.388174 0.068560 0.368512
v -0.354136 -0.068940 0.354413
v -0.388174 -0.206440 0.368512
v -0.481169 -0.307097 0.407032
v -0.608203 -0.343940 0.459651
v -0.735236 -0.307097 0.512269
v -0.828231 -0.206440 0.550789
v -0.782720 -0.068940 0.726199
v -0.750813 0.068560 0.707777
v -0.663641 0.169217 0.657449
v -0.544563 0.206060 0.588699
v -0.425484 0.169217 0.519949
v -0.338313 0.068560 0.469621
v -0.306406 -0.068940 0.451199
v -0.338313 -0.206440 0.469621
v -0.425484 -0.307097 0.519949
v -0.544563 -0.343940 0.588699
v -0.663641 -0.307097 0.657449
v -0.750813 -0.206440 0.707777
v -0.682796 -0.068940 0.875746
v -0.653566 0.068560 0.853318
v -0.573710 0.169217 0.792041
v -0.464624 0.206060 0.708337
v -0.355537 0.169217 0.624632
v -0.275681 0.068560 0.563356
v -0.246451 -0.068940 0.540927
v -0.275681 -0.206440 0.563356
v -0.355537 -0.307097 0.624632
v -0.464624 -0.343940 0.708337
v -0.573710 -0.307097 0.792041
v -0.653566 -0.206440 0.853318
v -0.564207 -0.068940 1.010971
v -0.538155 0.068560 0.984919
v -0.466980 0.169217 0.913744
v -0.369753 0.206060 0.816516
v -0.272525 0.169217 0.719289
v -0.201350 0.068560 0.648114
v -0.175298 -0.068940 0.622062
v -0.201350 -0.206440 0.648114
v -0.272525 -0.307097 0.719289
v -0.369753 -0.343940 0.816516
v -0.466980 -0.307097 0.913744
v -0.538155 -0.206440 0.984919
v -0.428983 -0.068940 1.129560
v -0.406554 0.068560 1.100330
v -0.345278 0.169217 1.020473
v -0.261573 0.206060 0.911388
v -0.177868 0.169217 0.802302
v -0.116592 0.068560 0.722445
v -0.094163 -0.068940 0.693215
v -0.116592 -0.206440 0.722445
v -0.177868 -0.307097 0.802302
v -0.261573 -0.343940 0.911388
v -0.345278 -0.307097 1.020473
v -0.406554 -0.206440 1.100330
v -0.279435 -0.068940 1.229484
v -0.261013 0.068560 1.197577
v -0.210685 0.169217 1.110406
v -0.141935 0.206060 0.991327
v -0.073185 0.169217 0.872249
v -0.022856 0.068560 0.785077
v -0.004435 -0.068940 0.753170
v -0.022856 -0.206440 0.785077
v -0.073185 -0.307097 0.872249
v -0.141935 -0.343940 0.991327
v -0.210685 -0.307097 1.110406
v -0.261013 -0.206440 1.197577
v -0.118125 -0.068940 1.309033
v -0.104026 0.068560 1.274995
v -0.065506 0.169217 1.182000
v -0.012887 0.206060 1.054967
v 0.039732 0.169217 0.927933
v 0.078252 0.068560 0.834938
v 0.092351 -0.068940 0.800900
v 0.078252 -0.206440 0.834938
v 0.039732 -0.307097 0.927933
v -0.012887 -0.343940 1.054967
v -0.065506 -0.307097 1.182000
v -0.104026 -0.206440 1.274995
v 0.052189 -0.068940 1.366847
v 0.061724 0.068560 1.331259
v 0.087776 0.169217 1.234032
v 0.123364 0.206060 1.101218
v 0.158952 0.169217 0.968403
v 0.185003 0.068560 0.871176
v 0.194539 -0.068940 0.835588
v 0.185003 -0.206440 0.871176
v 0.158952 -0.307097 0.968403
v 0.123364 -0.343940 1.101218
v 0.087776 -0.307097 1.234032
v 0.061724 -0.206440 1.331259
v 0.228591 -0.068940 1.401936
v 0.233400 0.068560 1.365408
v 0.246538 0.169217 1.265612
v 0.264486 0.206060 1.129288
v 0.282433 0.169217 0.992965
v 0.295572 0.068560 0.893169
v 0.300381 -0.068940 0.856641
v 0.295572 -0.206440 0.893169
v 0.282433 -0.307097 0.992965
v 0.264486 -0.343940 1.129288
v 0.246538 -0.307097 1.265612
v 0.233400 -0.206440 1.365408
v 0.408065 -0.068940 1.413699
v 0.408065 0.068560 1.376856
v 0.408065 0.169217 1.276199
v 0.408065 0.206060 1.138699
v 0.408065 0.169217 1.001199
v 0.408065 0.068560 0.900542
v 0.408065 -0.068940 0.863699
v 0.408065 -0.206440 0.900542
v 0.408065 -0.307097 1.001199
v 0.408065 -0.343940 1.138699
v 0.408065 -0.307097 1.276199
v 0.408065 -0.206440 1.376856
v 0.587538 -0.068940 1.401936
v 0.582729 0.068560 1.365408
v 0.569591 0.169217 1.265612
v 0.551644 0.206060 1.129289
v 0.533696 0.169217 0.992965
v 0.520558 0.068560 0.893169
v 0.515749 -0.068940 0.856641
v 0.520558 -0.206440 0.893169
v 0.533696 -0.307097 0.992965
v 0.551644 -0.343940 1.129289
v 0.569591 -0.307097 1.265612
v 0.582729 -0.206440 1.365408
v 0.763941 -0.068940 1.366847
v 0.754405 0.068560 1.331260
v 0.728353 0.169217 1.234033
v 0.692766 0.206060 1.101218
v 0.657178 0.169217 0.968403
v 0.631126 0.068560 0.871176
v 0.621590 -0.068940 0.835588
v 0.631126 -0.206440 0.871176
v 0.657178 -0.307097 0.968403
v 0.692766 -0.343940 1.101218
v 0.728353 -0.307097 1.234033
v 0.754405 -0.206440 1.331260
v 0.934255 -0.068940 1.309033
v 0.920156 0.068560 1.274995
v 0.881636 0.169217 1.182000
v 0.829017 0.206060 1.054966
v 0.776398 0.169217 0.927933
v 0.737878 0.068560 0.834938
v 0.723779 -0.068940 0.800900
v 0.737878 -0.206440 0.834938
v 0.776398 -0.307097 0.927933
v 0.829017 -0.343940 1.054966
v 0.881636 -0.307097 1.182000
v 0.920156 -0.206440 1.274995
v 1.095565 -0.068940 1.229484
v 1.077144 0.068560 1.197577
v 1.026815 0.169217 1.110406
v 0.958065 0.206060 0.991327
v 0.889315 0.169217 0.872249
v 0.838987 0.068560 0.785077
v 0.820565 -0.068940 0.753170
v 0.838987 -0.206440 0.785077
v 0.889315 -0.307097 0.872249
v 0.958065 -0.343940 0.991327
v 1.026815 -0.307097 1.110406
v 1.077144 -0.206440 1.197577
v 1.245112 -0.068940 1.129560
v 1.222683 0.068560 1.100331
v 1.161407 0.169217 1.020474
v 1.077703 0.206060 0.911388
v 0.993998 0.169217 0.802302
v 0.932722 0.068560 0.722445
v 0.910293 -0.068940 0.693216
v 0.932722 -0.206440 0.722445
v 0.993998 -0.307097 0.802302
v 1.077703 -0.343940 0.911388
v 1.161407 -0.307097 1.020474
v 1.222683 -0.206440 1.100331
v 1.380337 -0.068940 1.010972
v 1.354284 0.068560 0.984920
v 1.283109 0.169217 0.913744
v 1.185882 0.206060 0.816517
v 1.088655 0.169217 0.719290
v 1.017480 0.068560 0.648115
v 0.991428 -0.068940 0.622063
v 1.017480 -0.206440 0.648115
v 1.088655 -0.307097 0.719290
v 1.185882 -0.343940 0.816517
v 1.283109 -0.307097 0.913744
v 1.354284 -0.206440 0.984920
v 1.498926 -0.068940 0.875746
v 1.469697 0.068560 0.853317
v 1.389840 0.169217 0.792041
v 1.280754 0.206060 0.708337
v 1.171668 0.169217 0.624632
v 1.091811 0.068560 0.563356
v 1.062582 -0.068940 0.540927
v 1.091811 -0.206440 0.563356
v 1.171668 -0.307097 0.624632
v 1.280754 -0.343940 0.708337
v 1.389840 -0.307097 0.792041
v 1.469697 -0.206440 0.853317
v 1.598850 -0.068940 0.726199
v 1.566943 0.068560 0.707778
v 1.479772 0.169217 0.657449
v 1.360693 0.206060 0.588699
v 1.241615 0.169217 0.519949
v 1.154443 0.068560 0.469621
v 1.122536 -0.068940 0.451199
v 1.154443 -0.206440 0.469621
v 1.241615 -0.307097 0.519949
v 1.360693 -0.343940 0.588699
v 1.479772 -0.307097 0.657449
v 1.566943 -0.206440 0.707778
v 1.678399 -0.068940 0.564889
v 1.644361 0.068560 0.550790
v 1.551366 0.169217 0.512270
v 1.424332 0.206060 0.459651
v 1.297299 0.169217 0.407032
v 1.204304 0.068560 0.368513
v 1.170266 -0.068940 0.354413
v 1.204304 -0.206440 0.368513
v 1.297299 -0.307097 0.407032
v 1.424332 -0.343940 0.459651
v 1.551366 -0.307097 0.512270
v 1.644361 -0.206440 0.550790
v 1.736213 -0.068940 0.394575
v 1.700626 0.068560 0.385039
v 1.603399 0.169217 0.358987
v 1.470584 0.206060 0.323400
v 1.337769 0.169217 0.287812
v 1.240542 0.068560 0.261760
v 1.204954 -0.068940 0.252225
v 1.240542 -0.206440 0.261760
v 1.337769 -0.307097 0.287812
v 1.470584 -0.343940 0.323400
v 1.603399 -0.307097 0.358987
v 1.700626 -0.206440 0.385039
v 1.771302 -0.068940 0.218173
v 1.734774 0.068560 0.213364
v 1.634978 0.169217 0.200225
v 1.498655 0.206060 0.182278
v 1.362331 0.169217 0.164331
v 1.262535 0.068560 0.151192
v 1.226007 -0.068940 0.146383
v 1.262535 -0.206440 0.151192
v 1.362331 -0.307097 0.164331
v 1.498655 -0.343940 0.182278
v 1.634978 -0.307097 0.200225
v 1.734774 -0.206440 0.213364
vn 0.964000 0.258300 -0.063200
vn 0.706300 0.706300 -0.046300
vn 0.258800 0.965800 -0.017000
vn -0.258800 0.965800 0.017000
vn -0.706300 0.706300 0.046300
vn -0.964000 0.258300 0.063200
vn -0.964000 -0.258300 0.063200
vn -0.706300 -0.706300 0.046300
vn -0.258800 -0.965800 0.017000
vn 0.258800 -0.965800 -0.017000
vn 0.706300 -0.706300 -0.046300
vn 0.964000 -0.258300 -0.063200
vn 0.947500 0.258300 -0.188500
vn 0.694300 0.706300 -0.138100
vn 0.254400 0.965800 -0.050600
vn -0.254400 0.965800 0.050600
vn -0.694300 0.706300 0.138100
vn -0.947500 0.258300 0.188500
vn -0.947500 -0.258300 0.188500
vn -0.694300 -0.706300 0.138100
vn -0.254400 -0.965800 0.050600
vn 0.254400 -0.965800 -0.050600
vn 0.694300 -0.706300 -0.138100
vn 0.947500 -0.258300 -0.188500
vn 0.914800 0.258300 -0.310500
vn 0.670300 0.706300 -0.227500
vn 0.245600 0.965800 -0.083400
vn -0.245600 0.965800 0.083400
vn -0.670300 0.706300 0.227500
vn -0.914800 0.258300 0.310500
vn -0.914800 -0.258300 0.310500
vn -0.670300 -0.706300 0.227500
vn -0.245600 -0.965800 0.083400
vn 0.245600 -0.965800 -0.083400
vn 0.670300 -0.706300 -0.227500
vn 0.914800 -0.258300 -0.310500
vn 0.866400 0.258300 -0.427300
vn 0.634900 0.706300 -0.313100
vn 0.232600 0.965800 -0.114700
vn -0.232600 0.965800 0.114700
vn -0.634900 0.706300 0.313100
vn -0.866400 0.258300 0.427300
vn -0.866400 -0.258300 0.427300
vn -0.634900 -0.706300 0.313100
vn -0.232600 -0.965800 0.114700
vn 0.232600 -0.965800 -0.114700
vn 0.634900 -0.706300 -0.313100
vn 0.866400 -0.258300 -0.427300
vn 0.803300 0.258300 -0.536700
vn 0.588600 0.706300 -0.393300
vn 0.215600 0.965800 -0.144100
vn -0.215600 0.965800 0.144100
vn -0.588600 0.706300 0.393300
vn -0.803300 0.258300 0.536700
vn -0.803300 -0.258300 0.536700
vn -0.588600 -0.706300 0.393300
vn -0.215600 -0.965800 0.144100
vn 0.215600 -0.965800 -0.144100
vn 0.588600 -0.706300 -0.393300
vn 0.803300 -0.258300 -0.536700
vn 0.726300 0.258300 -0.637000
vn 0.532200 0.706300 -0.466700
vn 0.195000 0.965800 -0.171000
vn -0.195000 0.965800 0.171000
vn -0.532200 0.706300 0.466700
vn -0.726300 0.258300 0.637000
vn -0.726300 -0.258300 0.637000
vn -0.532200 -0.706300 0.466700
vn -0.195000 -0.965800 0.171000
vn 0.195000 -0.965800 -0.171000
vn 0.532200 -0.706300 -0.466700
vn 0.726300 -0.258300 -0.637000
vn 0.637000 0.258300 -0.726300
vn 0.466700 0.706300 -0.532200
vn 0.171000 0.965800 -0.195000
vn -0.171000 0.965800 0.195000
vn -0.466700 0.706300 0.532200
vn -0.637000 0.258300 0.726300
vn -0.637000 -0.258300 0.726300
vn -0.466700 -0.706300 0.532200
vn -0.171000 -0.965800 0.195000
vn 0.171000 -0.965800 -0.195000
vn 0.466700 -0.706300 -0.532200
vn 0.637000 -0.258300 -0.726300
vn 0.536700 0.258300 -0.803300
vn 0.393300 0.706300 -0.588600
vn 0.144100 0.965800 -0.215600
vn -0.144100 0.965800 0.215600
vn -0.393300 0.706300 0.588600
vn -0.536700 0.258300 0.803300
vn -0.536700 -0.258300 0.803300
vn -0.393300 -0.706300 0.588600
vn -0.144100 -0.965800 0.215600
vn 0.144100 -0.965800 -0.215600
vn 0.393300 -0.706300 -0.588600
vn 0.536700 -0.258300 -0.803300
vn 0.427300 0.258300 -0.866400
vn 0.313100 0.706300 -0.634900
vn 0.114700 0.965800 -0.232600
vn -0.114700 0.965800 0.232600
vn -0.313100 0.706300 0.634900
vn -0.427300 0.258300 0.866400
vn -0.427300 -0.258300 0.866400
vn -0.313100 -0.706300 0.634900
vn -0.114700 -0.965800 0.232600
vn 0.114700 -0.965800 -0.232600
vn 0.313100 -0.706300 -0.634900
vn 0.427300 -0.258300 -0.866400
vn 0.310500 0.258300 -0.914800
vn 0.227500 0.706300 -0.670300
vn 0.083400 0.965800 -0.245600
vn -0.083400 0.965800 0.245600
vn -0.227500 0.706300 0.670300
vn -0.310500 0.258300 0.914800
vn -0.310500 -0.258300 0.914800
vn -0.227500 -0.706300 0.670300
vn -0.083400 -0.965800 0.245600
vn 0.083400 -0.965800 -0.245600
vn 0.227500 -0.706300 -0.670300
vn 0.310500 -0.258300 -0.914800
vn 0.188500 0.258300 -0.947500
vn 0.138100 0.706300 -0.694300
vn 0.050600 0.965800 -0.254400
vn -0.050600 0.965800 0.254400
vn -0.138100 0.706300 0.694300
vn -0.188500 0.258300 0.947500
vn -0.188500 -0.258300 0.947500
vn -0.138100 -0.706300 0.694300
vn -0.050600 -0.965800 0.254400
vn 0.050600 -0.965800 -0.254400
vn 0.138100 -0.706300 -0.694300
vn 0.188500 -0.258300 -0.947500
vn 0.063200 0.258300 -0.964000
vn 0.046300 0.706300 -0.706300
vn 0.017000 0.965800 -0.258800
vn -0.017000 0.965800 0.258800
vn -0.046300 0.706300 0.706300
vn -0.063200 0.258300 0.964000
vn -0.063200 -0.258300 0.964000
vn -0.046300 -0.706300 0.706300
vn -0.017000 -0.965800 0.258800
vn 0.017000 -0.965800 -0.258800
vn 0.046300 -0.706300 -0.706300
vn 0.063200 -0.258300 -0.964000
vn -0.063200 0.258300 -0.964000
vn -0.046300 0.706300 -0.706300
vn -0.017000 0.965800 -0.258800
vn 0.017000 0.965800 0.258800
vn 0.046300 0.706300 0.706300
vn 0.063200 0.258300 0.964000
vn 0.063200 -0.258300 0.964000
vn 0.046300 -0.706300 0.706300
vn 0.017000 -0.965800 0.258800
vn -0.017000 -0.965800 -0.258800
vn -0.046300 -0.706300 -0.706300
vn -0.063200 -0.258300 -0.964000
vn -0.188500 0.258300 -0.947500
vn -0.138100 0.706300 -0.694300
vn -0.050600 0.965800 -0.254400
vn 0.050600 0.965800 0.254400
vn 0.138100 0.706300 0.694300
vn 0.188500 0.258300 0.947500
vn 0.188500 -0.258300 0.947500
vn 0.138100 -0.706300 0.694300
vn 0.050600 -0.965800 0.254400
vn -0.050600 -0.965800 -0.254400
vn -0.138100 -0.706300 -0.694300
vn -0.188500 -0.258300 -0.947500
vn -0.310500 0.258300 -0.914800
vn -0.227500 0.706300 -0.670300
vn -0.083400 0.965800 -0.245600
vn 0.083400 0.965800 0.245600
vn 0.227500 0.706300 0.670300
vn 0.310500 0.258300 0.914800
vn 0.310500 -0.258300 0.914800
vn 0.227500 -0.706300 0.670300
vn 0.083400 -0.965800 0.245600
vn -0.083400 -0.965800 -0.245600
vn -0.227500 -0.706300 -0.670300
vn -0.310500 -0.258300 -0.914800
vn -0.427300 0.258300 -0.866400
vn -0.313100 0.706300 -0.634900
vn -0.114700 0.965800 -0.232600
vn 0.114700 0.965800 0.232600
vn 0.313100 0.706300 0.634900
vn 0.427300 0.258300 0.866400
vn 0.427300 -0.258300 0.866400
vn 0.313100 -0.706300 0.634900
vn 0.114700 -0.965800 0.232600
vn -0.114700 -0.965800 -0.232600
vn -0.313100 -0.706300 -0.634900
vn -0.427300 -0.258300 -0.866400
vn -0.536700 0.258300 -0.803300
vn -0.393300 0.706300 -0.588600
vn -0.144100 0.965800 -0.215600
vn 0.144100 0.965800 0.215600
vn 0.393300 0.706300 0.588600
vn 0.536700 0.258300 0.803300
vn 0.536700 -0.258300 0.803300
vn 0.393300 -0.706300 0.588600
vn 0.144100 -0.965800 0.215600
vn -0.144100 -0.965800 -0.215600
vn -0.393300 -0.706300 -0.588600
vn -0.536700 -0.258300 -0.803300
vn -0.637000 0.258300 -0.726300
vn -0.466700 0.706300 -0.532200
vn -0.171000 0.965800 -0.195000
vn 0.171000 0.965800 0.195000
vn 0.466700 0.706300 0.532200
vn 0.637000 0.258300 0.726300
vn 0.637000 -0.258300 0.726300
vn 0.466700 -0.706300 0.532200
vn 0.171000 -0.965800 0.195000
vn -0.171000 -0.965800 -0.195000
vn -0.466700 -0.706300 -0.532200
vn -0.637000 -0.258300 -0.726300
vn -0.726300 0.258300 -0.637000
vn -0.532200 0.706300 -0.466700
vn -0.195000 0.965800 -0.171000
vn 0.195000 0.965800 0.171000
vn 0.532200 0.706300 0.466700
vn 0.726300 0.258300 0.637000
vn 0.726300 -0.258300 0.637000
vn 0.532200 -0.706300 0.466700
vn 0.195000 -0.965800 0.171000
vn -0.195000 -0.965800 -0.171000
vn -0.532200 -0.706300 -0.466700
vn -0.726300 -0.258300 -0.637000
vn -0.803300 0.258300 -0.536700
vn -0.588600 0.706300 -0.393300
vn -0.215600 0.965800 -0.144100
vn 0.215600 0.965800 0.144100
vn 0.588600 0.706300 0.393300
vn 0.803300 0.258300 0.536700
vn 0.803300 -0.258300 0.536700
vn 0.588600 -0.706300 0.393300
vn 0.215600 -0.965800 0.144100
vn -0.215600 -0.965800 -0.144100
vn -0.588600 -0.706300 -0.393300
vn -0.803300 -0.258300 -0.536700
vn -0.866400 0.258300 -0.427300
vn -0.634900 0.706300 -0.313100
vn -0.232600 0.965800 -0.114700
vn 0.232600 0.965800 0.114700
vn 0.634900 0.706300 0.313100
vn 0.866400 0.258300 0.427300
vn 0.866400 -0.258300 0.427300
vn 0.634900 -0.706300 0.313100
vn 0.232600 -0.965800 0.114700
vn -0.232600 -0.965800 -0.114700
vn -0.634900 -0.706300 -0.313100
vn -0.866400 -0.258300 -0.427300
vn -0.914800 0.258300 -0.310500
vn -0.670300 0.706300 -0.227500
vn -0.245600 0.965800 -0.083400
vn 0.245600 0.965800 0.083400
vn 0.670300 0.706300 0.227500
vn 0.914800 0.258300 0.310500
vn 0.914800 -0.258300 0.310500
vn 0.670300 -0.706300 0.227500
vn 0.245600 -0.965800 0.083400
vn -0.245600 -0.965800 -0.083400
vn -0.670300 -0.706300 -0.227500
vn -0.914800 -0.258300 -0.310500
vn -0.947500 0.258300 -0.188500
vn -0.694300 0.706300 -0.138100
vn -0.254400 0.965800 -0.050600
vn 0.254400 0.965800 0.050600
vn 0.694300 0.706300 0.138100
vn 0.947500 0.258300 0.188500
vn 0.947500 -0.258300 0.188500
vn 0.694300 -0.706300 0.138100
vn 0.254400 -0.965800 0.050600
vn -0.254400 -0.965800 -0.050600
vn -0.694300 -0.706300 -0.138100
vn -0.947500 -0.258300 -0.188500
vn -0.964000 0.258300 -0.063200
vn -0.706300 0.706300 -0.046300
vn -0.258800 0.965800 -0.017000
vn 0.258800 0.965800 0.017000
vn 0.706300 0.706300 0.046300
vn 0.964000 0.258300 0.063200
vn 0.964000 -0.258300 0.063200
vn 0.706300 -0.706300 0.046300
vn 0.258800 -0.965800 0.017000
vn -0.258800 -0.965800 -0.017000
vn -0.706300 -0.706300 -0.046300
vn -0.964000 -0.258300 -0.063200
usemtl Material.001
s off
f 1//1 13//1 14//1 2//1
f 2//2 14//2 15//2 3//2
f 3//3 15//3 16//3 4//3
f 4//4 16//4 17//4 5//4
f 5//5 17//5 18//5 6//5
f 6//6 18//6 19//6 7//6
f 7//7 19//7 20//7 8//7
f 8//8 20//8 21//8 9//8
f 9//9 21//9 22//9 10//9
f 10//10 22//10 23//10 11//10
f 11//11 23//11 24//11 12//11
f 1//12 12//12 24//12 13//12
f 13//13 25//13 26//13 14//13
f 14//14 26//14 27//14 15//14
f 15//15 27//15 28//15 16//15
f 16//16 28//16 29//16 17//16
f 17//17 29//17 30//17 18//17
f 18//18 30//18 31//18 19//18
f 19//19 31//19 32//19 20//19
f 20//20 32//20 33//20 21//20
f 21//21 33//21 34//21 22//21
f 22//22 34//22 35//22 23//22
f 23//23 35//23 36//23 24//23
f 24//24 36//24 25//24 13//24
f 25//25 37//25 38//25 26//25
f 26//26 38//26 39//26 27//26
f 27//27 39//27 40//27 28//27
f 28//28 40//28 41//28 29//28
f 29//29 41//29 42//29 30//29
f 30//30 42//30 43//30 31//30
f 31//31 43//31 44//31 32//31
f 32//32 44//32 45//32 33//32
f 33//33 45//33 46//33 34//33
f 34//34 46//34 47//34 35//34
f 35//35 47//35 48//35 36//35
f 36//36 48//36 37//36 25//36
f 37//37 49//37 50//37 38//37
f 38//38 50//38 51//38 39//38
f 39//39 51//39 52//39 40//39
f 40//40 52//40 53//40 41//40
f 41//41 53//41 54//41 42//41
f 42//42 54//42 55//42 43//42
f 43//43 55//43 56//43 44//43
f 44//44 56//44 57//44 45//44
f 45//45 57//45 58//45 46//45
f 46//46 58//46 59//46 47//46
f 47//47 59//47 60//47 48//47
f 48//48 60//48 49//48 37//48
f 49//49 61//49 62//49 50//49
f 50//50 62//50 63//50 51//50
f 51//51 63//51 64//51 52//51
f 52//52 64//52 65//52 53//52
f 53//53 65//53 66//53 54//53
f 54//54 66//54 67//54 55//54
f 55//55 67//55 68//55 56//55
f 56//56 68//56 69//56 57//56
f 57//57 69//57 70//57 58//57
f 58//58 70//58 71//58 59//58
f 59//59 71//59 72//59 60//59
f 60//60 72//60 61//60 49//60
f 61//61 73//61 74//61 62//61
f 62//62 74//62 75//62 63//62
f 63//63 75//63 76//63 64//63
f 64//64 76//64 77//64 65//64
f 65//65 77//65 78//65 66//65
f 66//66 78//66 79//66 67//66
f 67//67 79//67 80//67 68//67
f 68//68 80//68 81//68 69//68
f 69//69 81//69 82//69 70//69
f 70//70 82//70 83//70 71//70
f 71//71 83//71 84//71 72//71
f 72//72 84//72 73//72 61//72
f 73//73 85//73 86//73 74//73
f 74//74 86//74 87//74 75//74
f 75//75 87//75 88//75 76//75
f 76//76 88//76 89//76 77//76
f 77//77 89//77 90//77 78//77
f 78//78 90//78 91//78 79//78
f 79//79 91//79 92//79 80//79
f 80//80 92//80 93//80 81//80
f 81//81 93//81 94//81 82//81
f 82//82 94//82 95//82 83//82
f 83//83 95//83 96//83 84//83
f 84//84 96//84 85//84 73//84
f 85//85 97//85 98//85 86//85
f 86//86 98//86 99//86 87//86
f 87//87 99//87 100//87 88//87
f 88//88 100//88 101//88 89//88
f 89//89 101//89 102//89 90//89
f 90//90 102//90 103//90 91//90
f 91//91 103//91 104//91 92//91
f 92//92 104//92 105//92 93//92
f 93//93 105//93 106//93 94//93
f 94//94 106//94 107//94 95//94
f 95//95 107//95 108//95 96//95
f 96//96 108//96 97//96 85//96
f 97//97 109//97 110//97 98//97
f 98//98 110//98 111//98 99//98
f 99//99 111//99 112//99 100//99
f 100//100 112//100 113//100 101//100
f 101//101 113//101 114//101 102//101
f 102//102 114//102 115//102 103//102
f 103//103 115//103 116//103 104//103
f 104//104 116//104 117//104 105//104
f 105//105 117//105 118//105 106//105
f 106//106 118//106 119//106 107//106
f 107//107 119//107 120//107 108//107
f 108//108 120//108 109//108 97//108
f 109//109 121//109 122//109 110//109
f 110//110 122//110 123//110 111//110
f 111//111 123//111 124//111 112//111
f 112//112 124//112 125//112 113//112
f 113//113 125//113 126//113 114//113
f 114//114 126//114 127//114 115//114
f 115//115 127//115 128//115 116//115
f 116//116 128//116 129//116 117//116
f 117//117 129//117 130//117 118//117
f 118//118 130//118 131//118 119//118
f 119//119 131//119 132//119 120//119
f 120//120 132//120 121//120 109//120
f 121//121 133//121 134//121 122//121
f 122//122 134//122 135//122 123//122
f 123//123 135//123 136//123 124//123
f 124//124 136//124 137//124 125//124
f 125//125 137//125 138//125 126//125
f 126//126 138//126 139//126 127//126
f 127//127 139//127 140//127 128//127
f 128//128 140//128 141//128 129//128
f 129//129 141//129 142//129 130//129
f 130//130 142//130 143//130 131//130
f 131//131 143//131 144//131 132//131
f 132//132 144//132 133//132 121//132
f 133//133 145//133 146//133 134//133
f 134//134 146//134 147//134 135//134
f 135//135 147//135 148//135 136//135
f 136//136 148//136 149//136 137//136
f 137//137 149//137 150//137 138//137
f 138//138 150//138 151//138 139//138
f 139//139 151//139 152//139 140//139
f 140//140 152//140 153//140 141//140
f 141//141 153//141 154//141 142//141
f 142//142 154//142 155//142 143//142
f 143//143 155//143 156//143 144//143
f 144//144 156//144 145//144 133//144
f 145//145 157//145 158//145 146//145
f 146//146 158//146 159//146 147//146
f 147//147 159//147 160//147 148//147
f 148//148 160//148 161//148 149//148
f 149//149 161//149 162//149 150//149
f 150//150 162//150 163//150 151//150
f 151//151 163//151 164//151 152//151
f 152//152 164//152 165//152 153//152
f 153//153 165//153 166//153 154//153
f 154//154 166//154 167//154 155//154
f 155//155 167//155 168//155 156//155
f 156//156 168//156 157//156 145//156
f 157//157 169//157 170//157 158//157
f 158//158 170//158 171//158 159//158
f 159//159 171//159 172//159 160//159
f 160//160 172//160 173//160 161//160
f 161//161 173//161 174//161 162//161
f 162//162 174//162 175//162 163//162
f 163//163 175//163 176//163 164//163
f 164//164 176//164 177//164 165//164
f 165//165 177//165 178//165 166//165
f 166//166 178//166 179//166 167//166
f 167//167 179//167 180//167 168//167
f 168//168 180//168 169//168 157//168
f 169//169 181//169 182//169 170//169
f 170//170 182//170 183//170 171//170
f 171//171 183//171 184//171 172//171
f 172//172 184//172 185//172 173//172
f 173//173 185//173 186//173 174//173
f 174//174 186//174 187//174 175//174
f 175//175 187//175 188//175 176//175
f 176//176 188//176 189//176 177//176
f 177//177 189//177 190//177 178//177
f 178//178 190//178 191//178 179//178
f 179//179 191//179 192//179 180//179
f 180//180 192//180 181//180 169//180
f 181//181 193//181 194//181 182//181
f 182//182 194//182 195//182 183//182
f 183//183 195//183 196//183 184//183
f 184//184 196//184 197//184 185//184
f 185//185 197//185 198//185 186//185
f 186//186 198//186 199//186 187//186
f 187//187 199//187 200//187 188//187
f 188//188 200//188 201//188 189//188
f 189//189 201//189 202//189 190//189
f 190//190 202//190 203//190 191//190
f 191//191 203//191 204//191 192//191
f 192//192 204//192 193//192 181//192
f 193//193 205//193 206//193 194//193
f 194//194 206//194 207//194 195//194
f 195//195 207//195 208//195 196//195
f 196//196 208//196 209//196 197//196
f 197//197 209//197 210//197 198//197
f 198//198 210//198 211//198 199//198
f 199//199 211//199 212//199 200//199
f 200//200 212//200 213//200 201//200
f 201//201 213//201 214//201 202//201
f 202//202 214//202 215//202 203//202
f 203//203 215//203 216//203 204//203
f 204//204 216//204 205//204 193//204
f 205//205 217//205 218//205 206//205
f 206//206 218//206 219//206 207//206
f 207//207 219//207 220//207 208//207
f 208//208 220//208 221//208 209//208
f 209//209 221//209 222//209 210//209
f 210//210 222//210 223//210 211//210
f 211//211 223//211 224//211 212//211
f 212//212 224//212 225//212 213//212
f 213//213 225//213 226//213 214//213
f 214//214 226//214 227//214 215//214
f 215//215 227//215 228//215 216//215
f 216//216 228//216 217//216 205//216
f 217//217 229//217 230//217 218//217
f 218//218 230//218 231//218 219//218
f 219//219 231//219 232//219 220//219
f 220//220 232//220 233//220 221//220
f 221//221 233//221 234//221 222//221
f 222//222 234//222 235//222 223//222
f 223//223 235//223 236//223 224//223
f 224//224 236//224 237//224 225//224
f 225//225 237//225 238//225 226//225
f 226//226 238//226 239//226 227//226
f 227//227 239//227 240//227 228//227
f 228//228 240//228 229//228 217//228
f 229//229 241//229 242//229 230//229
f 230//230 242//230 243//230 231//230
f 231//231 243//231 244//231 232//231
f 232//232 244//232 245//232 233//232
f 233//233 245//233 246//233 234//233
f 234//234 246//234 247//234 235//234
f 235//235 247//235 248//235 236//235
f 236//236 248//236 249//236 237//236
f 237//237 249//237 250//237 238//237
f 238//238 250//238 251//238 239//238
f 239//239 251//239 252//239 240//239
f 240//240 252//240 241//240 229//240
f 241//241 253//241 254//241 242//241
f 242//242 254//242 255//242 243//242
f 243//243 255//243 256//243 244//243
f 244//244 256//244 257//244 245//244
f 245//245 257//245 258//245 246//245
f 246//246 258//246 259//246 247//246
f 247//247 259//247 260//247 248//247
f 248//248 260//248 261//248 249//248
f 249//249 261//249 262//249 250//249
f 250//250 262//250 263//250 251//250
f 251//251 263//251 264//251 252//251
f 252//252 264//252 253//252 241//252
f 253//253 265//253 266//253 254//253
f 254//254 266//254 267//254 255//254
f 255//255 267//255 268//255 256//255
f 256//256 268//256 269//256 257//256
f 257//257 269//257 270//257 258//257
f 258//258 270//258 271//258 259//258
f 259//259 271//259 272//259 260//259
f 260//260 272//260 273//260 261//260
f 261//261 273//261 274//261 262//261
f 262//262 274//262 275//262 263//262
f 263//263 275//263 276//263 264//263
f 264//264 276//264 265//264 253//264
f 265//265 277//265 278//265 266//265
f 266//266 278//266 279//266 267//266
f 267//267 279//267 280//267 268//267
f 268//268 280//268 281//268 269//268
f 269//269 281//269 282//269 270//269
f 270//270 282//270 283//270 271//270
f 271//271 283//271 284//271 272//271
f 272//272 284//272 285//272 273//272
f 273//273 285//273 286//273 274//273
f 274//274 286//274 287//274 275//274
f 275//275 287//275 288//275 276//275
f 276//276 288//276 277//276 265//276
f 277//277 289//277 290//277 278//277
f 278//278 290//278 291//278 279//278
f 279//279 291//279 292//279 280//279
f 280//280 292//280 293//280 281//280
f 281//281 293//281 294//281 282//281
f 282//282 294//282 295//282 283//282
f 283//283 295//283 296//283 284//283
f 284//284 296//284 297//284 285//284
f 285//285 297//285 298//285 286//285
f 286//286 298//286 299//286 287//286
f 287//287 299//287 300//287 288//287
f 288//288 300//288 289//288 277//288
f 289//6 301//6 302//6 290//6
f 290//5 302//5 303//5 291//5
f 291//4 303//4 304//4 292//4
f 292//3 304//3 305//3 293//3
f 293//2 305//2 306//2 294//2
f 294//1 306//1 307//1 295//1
f 295//12 307//12 308//12 296//12
f 296//11 308//11 309//11 297//11
f 297//10 309//10 310//10 298//10
f 298//9 310//9 311//9 299//9
f 299//8 311//8 312//8 300//8
f 300//7 312//7 301//7 289//7
f 301//18 313//18 314//18 302//18
f 302//17 314//17 315//17 303//17
f 303//16 315//16 316//16 304//16
f 304//15 316//15 317//15 305//15
f 305//14 317//14 318//14 306//14
f 306//13 318//13 319//13 307//13
f 307//24 319//24 320//24 308//24
f 308//23 320//23 321//23 309//23
f 309//22 321//22 322//22 310//22
f 310//21 322//21 323//21 311//21
f 311//20 323//20 324//20 312//20
f 312//19 324//19 313//19 301//19
f 313//30 325//30 326//30 314//30
f 314//29 326//29 327//29 315//29
f 315//28 327//28 328//28 316//28
f 316//27 328//27 329//27 317//27
f 317//26 329//26 330//26 318//26
f 318//25 330//25 331//25 319//25
f 319//36 331//36 332//36 320//36
f 320//35 332//35 333//35 321//35
f 321//34 333//34 334//34 322//34
f 322//33 334//33 335//33 323//33
f 323//32 335//32 336//32 324//32
f 324//31 336//31 325//31 313//31
f 325//42 337//42 338//42 326//42
f 326//41 338//41 339//41 327//41
f 327//40 339//40 340//40 328//40
f 328//39 340//39 341//39 329//39
f 329//38 341//38 342//38 330//38
f 330//37 342//37 343//37 331//37
f 331//48 343//48 344//48 332//48
f 332//47 344//47 345//47 333//47
f 333//46 345//46 346//46 334//46
f 334//45 346//45 347//45 335//45
f 335//44 347//44 348//44 336//44
f 336//43 348//43 337//43 325//43
f 337//54 349//54 350//54 338//54
f 338//53 350//53 351//53 339//53
f 339//52 351//52 352//52 340//52
f 340//51 352//51 353//51 341//51
f 341//50 353//50 354//50 342//50
f 342//49 354//49 355//49 343//49
f 343//60 355//60 356//60 344//60
f 344//59 356//59 357//59 345//59
f 345//58 357//58 358//58 346//58
f 346//57 358//57 359//57 347//57
f 347//56 359//56 360//56 348//56
f 348//55 360//55 349//55 337//55
f 349//66 361//66 362//66 350//66
f 350//65 362//65 363//65 351//65
f 351//64 363//64 364//64 352//64
f 352//63 364//63 365//63 353//63
f 353//62 365//62 366//62 354//62
f 354//61 366//61 367//61 355//61
f 355//72 367//72 368//72 356//72
f 356//71 368//71 369//71 357//71
f 357//70 369//70 370//70 358//70
f 358//69 370//69 371//69 359//69
f 359//68 371//68 372//68 360//68
f 360//67 372//67 361//67 349//67
f 361//78 373//78 374//78 362//78
f 362//77 374//77 375//77 363//77
f 363//76 375//76 376//76 364//76
f 364//75 376//75 377//75 365//75
f 365//74 377//74 378//74 366//74
f 366//73 378//73 379//73 367//73
f 367//84 379//84 380//84 368//84
f 368//83 380//83 381//83 369//83
f 369//82 381//82 382//82 370//82
f 370//81 382//81 383//81 371//81
f 371//80 383//80 384//80 372//80
f 372//79 384//79 373//79 361//79
f 373//90 385//90 386//90 374//90
f 374//89 386//89 387//89 375//89
f 375//88 387//88 388//88 376//88
f 376//87 388//87 389//87 377//87
f 377//86 389//86 390//86 378//86
f 378//85 390//85 391//85 379//85
f 379//96 391//96 392//96 380//96
f 380//95 392//95 393//95 381//95
f 381//94 393//94 394//94 382//94
f 382//93 394//93 395//93 383//93
f 383//92 395//92 396//92 384//92
f 384//91 396//91 385//91 373//91
f 385//102 397//102 398//102 386//102
f 386//101 398//101 399//101 387//101
f 387//100 399//100 400//100 388//100
f 388//99 400//99 401//99 389//99
f 389//98 401//98 402//98 390//98
f 390//97 402//97 403//97 391//97
f 391//108 403//108 404//108 392//108
f 392//107 404//107 405//107 393//107
f 393//106 405//106 406//106 394//106
f 394//105 406//105 407//105 395//105
f 395//104 407//104 408//104 396//104
f 396//103 408//103 397//103 385//103
f 397//114 409//114 410//114 398//114
f 398//113 410//113 411//113 399//113
f 399//112 411//112 412//112 400//112
f 400//111 412//111 413//111 401//111
f 401//110 413//110 414//110 402//110
f 402//109 414//109 415//109 403//109
f 403//120 415//120 416//120 404//120
f 404//119 416//119 417//119 405//119
f 405//118 417//118 418//118 406//118
f 406//117 418//117 419//117 407//117
f 407//116 419//116 420//116 408//116
f 408//115 420//115 409//115 397//115
f 409//126 421//126 422//126 410//126
f 410//125 422//125 423//125 411//125
f 411//124 423//124 424//124 412//124
f 412//123 424//123 425//123 413//123
f 413//122 425//122 426//122 414//122
f 414//121 426//121 427//121 415//121
f 415//132 427//132 428//132 416//132
f 416//131 428//131 429//131 417//131
f 417//130 429//130 430//130 418//130
f 418//129 430//129 431//129 419//129
f 419//128 431//128 432//128 420//128
f 420//127 432//127 421//127 409//127
f 421//138 433//138 434//138 422//138
f 422//137 434//137 435//137 423//137
f 423//136 435//136 436//136 424//136
f 424//135 436//135 437//135 425//135
f 425//134 437//134 438//134 426//134
f 426//133 438//133 439//133 427//133
f 427//144 439//144 440//144 428//144
f 428//143 440//143 441//143 429//143
f 429//142 441//142 442//142 430//142
f 430//141 442//141 443//141 431//141
f 431//140 443//140 444//140 432//140
f 432//139 444//139 433//139 421//139
f 433//150 445//150 446//150 434//150
f 434//149 446//149 447//149 435//149
f 435//148 447//148 448//148 436//148
f 436//147 448//147 449//147 437//147
f 437//146 449//146 450//146 438//146
f 438//145 450//145 451//145 439//145
f 439//156 451//156 452//156 440//156
f 440//155 452//155 453//155 441//155
f 441//154 453//154 454//154 442//154
f 442//153 454//153 455//153 443//153
f 443//152 455//152 456//152 444//152
f 444//151 456//151 445//151 433//151
f 445//162 457//162 458//162 446//162
f 446//161 458//161 459//161 447//161
f 447//160 459//160 460//160 448//160
f 448//159 460//159 461//159 449//159
f 449//158 461//158 462//158 450//158
f 450//157 462//157 463//157 451//157
f 451//168 463//168 464//168 452//168
f 452//167 464//167 465//167 453//167
f 453//166 465//166 466//166 454//166
f 454//165 466//165 467//165 455//165
f 455//164 467//164 468//164 456//164
f 456//163 468//163 457//163 445//163
f 457//174 469//174 470//174 458//174
f 458//173 470//173 471//173 459//173
f 459//172 471//172 472//172 460//172
f 460//171 472//171 473//171 461//171
f 461//170 473//170 474//170 462//170
f 462//169 474//169 475//169 463//169
f 463//180 475//180 476//180 464//180
f 464//179 476//179 477//179 465//179
f 465//178 477//178 478//178 466//178
f 466//177 478//177 479//177 467//177
f 467//176 479//176 480//176 468//176
f 468//175 480//175 469//175 457//175
f 469//186 481//186 482//186 470//186
f 470//185 482//185 483//185 471//185
f 471//184 483//184 484//184 472//184
f 472//183 484//183 485//183 473//183
f 473//182 485//182 486//182 474//182
f 474//181 486//181 487//181 475//181
f 475//192 487//192 488//192 476//192
f 476//191 488//191 489//191 477//191
f 477//190 489//190 490//190 478//190
f 478//189 490//189 491//189 479//189
f 479//188 491//188 492//188 480//188
f 480//187 492//187 481//187 469//187
f 481//198 493//198 494//198 482//198
f 482//197 494//197 495//197 483//197
f 483//196 495//196 496//196 484//196
f 484//195 496//195 497//195 485//195
f 485//194 497//194 498//194 486//194
f 486//193 498//193 499//193 487//193
f 487//204 499//204 500//204 488//204
f 488//203 500//203 501//203 489//203
f 489//202 501//202 502//202 490//202
f 490//201 502//201 503//201 491//201
f 491//200 503//200 504//200 492//200
f 492//199 504//199 493//199 481//199
f 493//210 505//210 506//210 494//210
f 494//209 506//209 507//209 495//209
f 495//208 507//208 508//208 496//208
f 496//207 508//207 509//207 497//207
f 497//206 509//206 510//206 498//206
f 498//205 510//205 511//205 499//205
f 499//216 511//216 512//216 500//216
f 500//215 512//215 513//215 501//215
f 501//214 513//214 514//214 502//214
f 502//213 514//213 515//213 503//213
f 503//212 515//212 516//212 504//212
f 504//211 516//211 505//211 493//211
f 505//222 517//222 518//222 506//222
f 506//221 518//221 519//221 507//221
f 507//220 519//220 520//220 508//220
f 508//219 520//219 521//219 509//219
f 509//218 521//218 522//218 510//218
f 510//217 522//217 523//217 511//217
f 511//228 523//228 524//228 512//228
f 512//227 524//227 525//227 513//227
f 513//226 525//226 526//226 514//226
f 514//225 526//225 527//225 515//225
f 515//224 527//224 528//224 516//224
f 516//223 528//223 517//223 505//223
f 517//234 529//234 530//234 518//234
f 518//233 530//233 531//233 519//233
f 519//232 531//232 532//232 520//232
f 520//231 532//231 533//231 521//231
f 521//230 533//230 534//230 522//230
f 522//229 534//229 535//229 523//229
f 523//240 535//240 536//240 524//240
f 524//239 536//239 537//239 525//239
f 525//238 537//238 538//238 526//238
f 526//237 538//237 539//237 527//237
f 527//236 539//236 540//236 528//236
f 528//235 540//235 529//235 517//235
f 529//246 541//246 542//246 530//246
f 530//245 542//245 543//245 531//245
f 531//244 543//244 544//244 532//244
f 532//243 544//243 545//243 533//243
f 533//242 545//242 546//242 534//242
f 534//241 546//241 547//241 535//241
f 535//252 547//252 548//252 536//252
f 536//251 548//251 549//251 537//251
f 537//250 549//250 550//250 538//250
f 538//249 550//249 551//249 539//249
f 539//248 551//248 552//248 540//248
f 540//247 552//247 541//247 529//247
f 541//258 553//258 554//258 542//258
f 542//257 554//257 555//257 543//257
f 543//256 555//256 556//256 544//256
f 544//255 556//255 557//255 545//255
f 545//254 557//254 558//254 546//254
f 546//253 558//253 559//253 547//253
f 547//264 559//264 560//264 548//264
f 548//263 560//263 561//263 549//263
f 549//262 561//262 562//262 550//262
f 550//261 562//261 563//261 551//261
f 551//260 563//260 564//260 552//260
f 552//259 564//259 553//259 541//259
f 553//270 565//270 566//270 554//270
f 554//269 566//269 567//269 555//269
f 555//268 567//268 568//268 556//268
f 556//267 568//267 569//267 557//267
f 557//266 569//266 570//266 558//266
f 558//265 570//265 571//265 559//265
f 559//276 571//276 572//276 560//276
f 560//275 572//275 573//275 561//275
f 561//274 573//274 574//274 562//274
f 562//273 574//273 575//273 563//273
f 563//272 575//272 576//272 564//272
f 564//271 576//271 565//271 553//271
f 565//282 1//282 2//282 566//282
f 566//281 2//281 3//281 567//281
f 567//280 3//280 4//280 568//280
f 568//279 4//279 5//279 569//279
f 569//278 5//278 6//278 570//278
f 570//277 6//277 7//277 571//277
f 571//288 7//288 8//288 572//288
f 572//287 8//287 9//287 573//287
f 573//286 9//286 10//286 574//286
f 574//285 10//285 11//285 575//285
f 575//284 11//284 12//284 576//284
f 576//283 12//283 1//283 565//283
