# Blender MTL File: 'None'
# Material Count: 2

newmtl Material.001
Ns 94.117647
Ka 1.000000 1.000000 1.000000
Kd 0.640000 0.640000 0.640000
Ks 0.500000 0.500000 0.500000
Ke 0.000000 0.000000 0.000000
Ni 1.000000
d 1.000000
illum 2
map_Kd /home/lumo/Imagens/images.jpeg

newmtl None
Ns 0.000000
Ka 0.000000 0.000000 0.000000
Kd 0.800000 0.800000 0.800000
Ks 0.800000 0.800000 0.800000
Ke 0.000000 0.000000 0.000000
Ni 1.000000
d 1.000000
illum 2
map_Kd /home/lumo/Imagens/955836ba9b99708.jpg
